Previsión de demanda
…
Obtenemos los picos y caidas:

umbral_pico <- quantile(demanda_diaria$Demanda_Total, 0.95, na.rm = TRUE)  # 95 percentil

picos <- demanda_diaria %>%
  filter(Demanda_Total >= umbral_pico)

print(picos)

## # A tibble: 38 × 3
##    Date       Demanda_Total Promedio_Movil_7d
##    <date>             <int>             <dbl>
##  1 2022-01-05          1627               NA 
##  2 2022-01-11          1525             1355.
##  3 2022-02-09          1593             1372 
##  4 2022-03-01          1587             1266.
##  5 2022-03-20          1658             1315.
##  6 2022-03-27          1705             1320.
##  7 2022-04-06          1704             1303.
##  8 2022-04-08          1572             1337.
##  9 2022-04-12          1594             1450.
## 10 2022-06-10          1724             1284.
## # ℹ 28 more rows
…
umbral_caida <- quantile(demanda_diaria$Demanda_Total, 0.05, na.rm = TRUE)

caidas <- demanda_diaria %>%
  filter(Demanda_Total <= umbral_caida)

print(caidas)

## # A tibble: 38 × 3
##    Date       Demanda_Total Promedio_Movil_7d
##    <date>             <int>             <dbl>
##  1 2022-04-26           575              916.
##  2 2022-04-28           551              731.
##  3 2022-04-29           562              648.
##  4 2022-04-30           504              625.
##  5 2022-05-05           635              646.
##  6 2022-05-08           587              691.
##  7 2022-05-09           624              679 
##  8 2022-05-12           612              702.
##  9 2022-05-18           558              677.
## 10 2022-05-24           628              697.
## # ℹ 28 more rows
…
